[
null,
{"id":1,"expParams":[30,20,30,30],"traits":[{"code":23,"dataId":0,"value":1},{"code":22,"dataId":0,"value":0.95},{"code":22,"dataId":1,"value":0.05},{"code":22,"dataId":2,"value":0.04},{"code":41,"dataId":1,"value":0},{"code":51,"dataId":2,"value":0},{"code":52,"dataId":1,"value":0},{"code":52,"dataId":3,"value":0},{"code":52,"dataId":5,"value":0},{"code":41,"dataId":2,"value":1}],"learnings":[{"level":1,"note":"","skillId":8},{"level":1,"note":"","skillId":10},{"level":1,"note":"","skillId":5},{"level":1,"note":"","skillId":2},{"level":1,"note":"","skillId":19},{"level":1,"note":"","skillId":22},{"level":1,"note":"","skillId":12}],"name":"Héroe","note":"","params":[[1,450,500,550,600,650,700,750,800,850,900,950,1000,1050,1100,1150,1200,1250,1300,1350,1400,1450,1500,1550,1600,1650,1700,1750,1800,1850,1900,1950,2000,2050,2100,2150,2200,2250,2300,2350,2400,2450,2500,2550,2600,2650,2700,2750,2800,2850,2900,2950,3000,3050,3100,3150,3200,3250,3300,3350,3400,3450,3500,3550,3600,3650,3700,3750,3800,3850,3900,3950,4000,4050,4100,4150,4200,4250,4300,4350,4400,4450,4500,4550,4600,4650,4700,4750,4800,4850,4900,4950,5000,5050,5100,5150,5200,5250,5300,5350],[0,90,100,110,120,130,140,150,160,170,180,190,200,210,220,230,240,250,260,270,280,290,300,310,320,330,340,350,360,370,380,390,400,410,420,430,440,450,460,470,480,490,500,510,520,530,540,550,560,570,580,590,600,610,620,630,640,650,660,670,680,690,700,710,720,730,740,750,760,770,780,790,800,810,820,830,840,850,860,870,880,890,900,910,920,930,940,950,960,970,980,990,1000,1010,1020,1030,1040,1050,1060,1070],[1,16,20,23,26,29,32,35,38,41,44,47,50,53,56,59,61,64,67,70,73,76,78,81,84,87,90,92,95,98,100,103,106,108,111,114,116,119,121,124,126,129,131,134,136,139,141,144,146,149,151,153,156,158,160,163,165,167,170,172,174,176,179,181,183,185,187,190,192,194,196,198,200,202,204,206,208,210,212,214,216,218,220,222,224,226,228,229,231,233,235,237,238,240,242,244,245,247,249,250],[0,16,18,19,20,21,23,24,25,26,28,29,30,31,33,34,35,36,38,39,40,41,43,44,45,46,48,49,50,51,53,54,55,56,58,59,60,61,63,64,65,66,68,69,70,71,73,74,75,76,77,79,80,81,82,84,85,86,87,89,90,91,92,94,95,96,97,99,100,101,102,104,105,106,107,109,110,111,112,114,115,116,117,119,120,121,122,124,125,126,127,129,130,131,132,134,135,136,137,138],[0,16,18,19,20,21,23,24,25,26,28,29,30,31,33,34,35,36,38,39,40,41,43,44,45,46,48,49,50,51,53,54,55,56,58,59,60,61,63,64,65,66,68,69,70,71,73,74,75,76,77,79,80,81,82,84,85,86,87,89,90,91,92,94,95,96,97,99,100,101,102,104,105,106,107,109,110,111,112,114,115,116,117,119,120,121,122,124,125,126,127,129,130,131,132,134,135,136,137,138],[0,16,18,19,20,21,23,24,25,26,28,29,30,31,33,34,35,36,38,39,40,41,43,44,45,46,48,49,50,51,53,54,55,56,58,59,60,61,63,64,65,66,68,69,70,71,73,74,75,76,77,79,80,81,82,84,85,86,87,89,90,91,92,94,95,96,97,99,100,101,102,104,105,106,107,109,110,111,112,114,115,116,117,119,120,121,122,124,125,126,127,129,130,131,132,134,135,136,137,138],[0,32,35,37,40,42,45,47,50,52,55,57,60,62,65,67,70,72,75,77,80,82,85,87,90,92,95,97,100,102,105,107,110,112,115,117,120,122,125,127,130,132,135,137,140,142,145,147,150,152,155,157,160,162,165,167,170,172,175,177,180,182,185,187,190,192,195,197,200,202,205,207,210,212,215,217,220,222,225,227,230,232,235,237,240,242,245,247,250,252,255,257,260,262,265,267,270,272,275,277],[0,32,35,37,40,42,45,47,50,52,55,57,60,62,65,67,70,72,75,77,80,82,85,87,90,92,95,97,100,102,105,107,110,112,115,117,120,122,125,127,130,132,135,137,140,142,145,147,150,152,155,157,160,162,165,167,170,172,175,177,180,182,185,187,190,192,195,197,200,202,205,207,210,212,215,217,220,222,225,227,230,232,235,237,240,242,245,247,250,252,255,257,260,262,265,267,270,272,275,277]]},
{"id":2,"expParams":[30,20,30,30],"traits":[{"code":23,"dataId":0,"value":1},{"code":22,"dataId":0,"value":0.95},{"code":22,"dataId":1,"value":0.05},{"code":22,"dataId":2,"value":0.04},{"code":41,"dataId":1,"value":0},{"code":51,"dataId":4,"value":0},{"code":52,"dataId":1,"value":0},{"code":52,"dataId":3,"value":0},{"code":52,"dataId":4,"value":0},{"code":52,"dataId":5,"value":0},{"code":52,"dataId":6,"value":0}],"learnings":[],"name":"Guerrero","note":"","params":[[1,450,500,550,600,650,700,750,800,850,900,950,1000,1050,1100,1150,1200,1250,1300,1350,1400,1450,1500,1550,1600,1650,1700,1750,1800,1850,1900,1950,2000,2050,2100,2150,2200,2250,2300,2350,2400,2450,2500,2550,2600,2650,2700,2750,2800,2850,2900,2950,3000,3050,3100,3150,3200,3250,3300,3350,3400,3450,3500,3550,3600,3650,3700,3750,3800,3850,3900,3950,4000,4050,4100,4150,4200,4250,4300,4350,4400,4450,4500,4550,4600,4650,4700,4750,4800,4850,4900,4950,5000,5050,5100,5150,5200,5250,5300,5350],[0,90,100,110,120,130,140,150,160,170,180,190,200,210,220,230,240,250,260,270,280,290,300,310,320,330,340,350,360,370,380,390,400,410,420,430,440,450,460,470,480,490,500,510,520,530,540,550,560,570,580,590,600,610,620,630,640,650,660,670,680,690,700,710,720,730,740,750,760,770,780,790,800,810,820,830,840,850,860,870,880,890,900,910,920,930,940,950,960,970,980,990,1000,1010,1020,1030,1040,1050,1060,1070],[1,16,18,19,20,21,23,24,25,26,28,29,30,31,33,34,35,36,38,39,40,41,43,44,45,46,48,49,50,51,53,54,55,56,58,59,60,61,63,64,65,66,68,69,70,71,73,74,75,76,77,79,80,81,82,84,85,86,87,89,90,91,92,94,95,96,97,99,100,101,102,104,105,106,107,109,110,111,112,114,115,116,117,119,120,121,122,124,125,126,127,129,130,131,132,134,135,136,137,138],[0,16,18,19,20,21,23,24,25,26,28,29,30,31,33,34,35,36,38,39,40,41,43,44,45,46,48,49,50,51,53,54,55,56,58,59,60,61,63,64,65,66,68,69,70,71,73,74,75,76,77,79,80,81,82,84,85,86,87,89,90,91,92,94,95,96,97,99,100,101,102,104,105,106,107,109,110,111,112,114,115,116,117,119,120,121,122,124,125,126,127,129,130,131,132,134,135,136,137,138],[0,16,18,19,20,21,23,24,25,26,28,29,30,31,33,34,35,36,38,39,40,41,43,44,45,46,48,49,50,51,53,54,55,56,58,59,60,61,63,64,65,66,68,69,70,71,73,74,75,76,77,79,80,81,82,84,85,86,87,89,90,91,92,94,95,96,97,99,100,101,102,104,105,106,107,109,110,111,112,114,115,116,117,119,120,121,122,124,125,126,127,129,130,131,132,134,135,136,137,138],[0,16,18,19,20,21,23,24,25,26,28,29,30,31,33,34,35,36,38,39,40,41,43,44,45,46,48,49,50,51,53,54,55,56,58,59,60,61,63,64,65,66,68,69,70,71,73,74,75,76,77,79,80,81,82,84,85,86,87,89,90,91,92,94,95,96,97,99,100,101,102,104,105,106,107,109,110,111,112,114,115,116,117,119,120,121,122,124,125,126,127,129,130,131,132,134,135,136,137,138],[0,32,35,37,40,42,45,47,50,52,55,57,60,62,65,67,70,72,75,77,80,82,85,87,90,92,95,97,100,102,105,107,110,112,115,117,120,122,125,127,130,132,135,137,140,142,145,147,150,152,155,157,160,162,165,167,170,172,175,177,180,182,185,187,190,192,195,197,200,202,205,207,210,212,215,217,220,222,225,227,230,232,235,237,240,242,245,247,250,252,255,257,260,262,265,267,270,272,275,277],[0,32,35,37,40,42,45,47,50,52,55,57,60,62,65,67,70,72,75,77,80,82,85,87,90,92,95,97,100,102,105,107,110,112,115,117,120,122,125,127,130,132,135,137,140,142,145,147,150,152,155,157,160,162,165,167,170,172,175,177,180,182,185,187,190,192,195,197,200,202,205,207,210,212,215,217,220,222,225,227,230,232,235,237,240,242,245,247,250,252,255,257,260,262,265,267,270,272,275,277]]},
{"id":3,"expParams":[30,20,30,30],"traits":[{"code":23,"dataId":0,"value":1},{"code":22,"dataId":0,"value":0.95},{"code":22,"dataId":1,"value":0.05},{"code":22,"dataId":2,"value":0.04},{"code":41,"dataId":1,"value":0},{"code":51,"dataId":6,"value":0},{"code":52,"dataId":1,"value":0},{"code":52,"dataId":2,"value":0}],"learnings":[{"level":1,"note":"","skillId":9}],"name":"Mago","note":"","params":[[1,450,500,550,600,650,700,750,800,850,900,950,1000,1050,1100,1150,1200,1250,1300,1350,1400,1450,1500,1550,1600,1650,1700,1750,1800,1850,1900,1950,2000,2050,2100,2150,2200,2250,2300,2350,2400,2450,2500,2550,2600,2650,2700,2750,2800,2850,2900,2950,3000,3050,3100,3150,3200,3250,3300,3350,3400,3450,3500,3550,3600,3650,3700,3750,3800,3850,3900,3950,4000,4050,4100,4150,4200,4250,4300,4350,4400,4450,4500,4550,4600,4650,4700,4750,4800,4850,4900,4950,5000,5050,5100,5150,5200,5250,5300,5350],[0,90,100,110,120,130,140,150,160,170,180,190,200,210,220,230,240,250,260,270,280,290,300,310,320,330,340,350,360,370,380,390,400,410,420,430,440,450,460,470,480,490,500,510,520,530,540,550,560,570,580,590,600,610,620,630,640,650,660,670,680,690,700,710,720,730,740,750,760,770,780,790,800,810,820,830,840,850,860,870,880,890,900,910,920,930,940,950,960,970,980,990,1000,1010,1020,1030,1040,1050,1060,1070],[1,16,18,19,20,21,23,24,25,26,28,29,30,31,33,34,35,36,38,39,40,41,43,44,45,46,48,49,50,51,53,54,55,56,58,59,60,61,63,64,65,66,68,69,70,71,73,74,75,76,77,79,80,81,82,84,85,86,87,89,90,91,92,94,95,96,97,99,100,101,102,104,105,106,107,109,110,111,112,114,115,116,117,119,120,121,122,124,125,126,127,129,130,131,132,134,135,136,137,138],[0,16,18,19,20,21,23,24,25,26,28,29,30,31,33,34,35,36,38,39,40,41,43,44,45,46,48,49,50,51,53,54,55,56,58,59,60,61,63,64,65,66,68,69,70,71,73,74,75,76,77,79,80,81,82,84,85,86,87,89,90,91,92,94,95,96,97,99,100,101,102,104,105,106,107,109,110,111,112,114,115,116,117,119,120,121,122,124,125,126,127,129,130,131,132,134,135,136,137,138],[0,16,18,19,20,21,23,24,25,26,28,29,30,31,33,34,35,36,38,39,40,41,43,44,45,46,48,49,50,51,53,54,55,56,58,59,60,61,63,64,65,66,68,69,70,71,73,74,75,76,77,79,80,81,82,84,85,86,87,89,90,91,92,94,95,96,97,99,100,101,102,104,105,106,107,109,110,111,112,114,115,116,117,119,120,121,122,124,125,126,127,129,130,131,132,134,135,136,137,138],[0,16,18,19,20,21,23,24,25,26,28,29,30,31,33,34,35,36,38,39,40,41,43,44,45,46,48,49,50,51,53,54,55,56,58,59,60,61,63,64,65,66,68,69,70,71,73,74,75,76,77,79,80,81,82,84,85,86,87,89,90,91,92,94,95,96,97,99,100,101,102,104,105,106,107,109,110,111,112,114,115,116,117,119,120,121,122,124,125,126,127,129,130,131,132,134,135,136,137,138],[0,32,35,37,40,42,45,47,50,52,55,57,60,62,65,67,70,72,75,77,80,82,85,87,90,92,95,97,100,102,105,107,110,112,115,117,120,122,125,127,130,132,135,137,140,142,145,147,150,152,155,157,160,162,165,167,170,172,175,177,180,182,185,187,190,192,195,197,200,202,205,207,210,212,215,217,220,222,225,227,230,232,235,237,240,242,245,247,250,252,255,257,260,262,265,267,270,272,275,277],[0,32,35,37,40,42,45,47,50,52,55,57,60,62,65,67,70,72,75,77,80,82,85,87,90,92,95,97,100,102,105,107,110,112,115,117,120,122,125,127,130,132,135,137,140,142,145,147,150,152,155,157,160,162,165,167,170,172,175,177,180,182,185,187,190,192,195,197,200,202,205,207,210,212,215,217,220,222,225,227,230,232,235,237,240,242,245,247,250,252,255,257,260,262,265,267,270,272,275,277]]},
{"id":4,"expParams":[30,20,30,30],"traits":[{"code":23,"dataId":0,"value":1},{"code":22,"dataId":0,"value":0.95},{"code":22,"dataId":1,"value":0.05},{"code":22,"dataId":2,"value":0.04},{"code":41,"dataId":1,"value":0},{"code":52,"dataId":1,"value":0},{"code":52,"dataId":2,"value":0},{"code":51,"dataId":13,"value":1}],"learnings":[{"level":1,"note":"","skillId":8}],"name":"Sacerdote","note":"","params":[[1,450,500,550,600,650,700,750,800,850,900,950,1000,1050,1100,1150,1200,1250,1300,1350,1400,1450,1500,1550,1600,1650,1700,1750,1800,1850,1900,1950,2000,2050,2100,2150,2200,2250,2300,2350,2400,2450,2500,2550,2600,2650,2700,2750,2800,2850,2900,2950,3000,3050,3100,3150,3200,3250,3300,3350,3400,3450,3500,3550,3600,3650,3700,3750,3800,3850,3900,3950,4000,4050,4100,4150,4200,4250,4300,4350,4400,4450,4500,4550,4600,4650,4700,4750,4800,4850,4900,4950,5000,5050,5100,5150,5200,5250,5300,5350],[0,90,100,110,120,130,140,150,160,170,180,190,200,210,220,230,240,250,260,270,280,290,300,310,320,330,340,350,360,370,380,390,400,410,420,430,440,450,460,470,480,490,500,510,520,530,540,550,560,570,580,590,600,610,620,630,640,650,660,670,680,690,700,710,720,730,740,750,760,770,780,790,800,810,820,830,840,850,860,870,880,890,900,910,920,930,940,950,960,970,980,990,1000,1010,1020,1030,1040,1050,1060,1070],[1,16,18,19,20,21,23,24,25,26,28,29,30,31,33,34,35,36,38,39,40,41,43,44,45,46,48,49,50,51,53,54,55,56,58,59,60,61,63,64,65,66,68,69,70,71,73,74,75,76,77,79,80,81,82,84,85,86,87,89,90,91,92,94,95,96,97,99,100,101,102,104,105,106,107,109,110,111,112,114,115,116,117,119,120,121,122,124,125,126,127,129,130,131,132,134,135,136,137,138],[0,16,18,19,20,21,23,24,25,26,28,29,30,31,33,34,35,36,38,39,40,41,43,44,45,46,48,49,50,51,53,54,55,56,58,59,60,61,63,64,65,66,68,69,70,71,73,74,75,76,77,79,80,81,82,84,85,86,87,89,90,91,92,94,95,96,97,99,100,101,102,104,105,106,107,109,110,111,112,114,115,116,117,119,120,121,122,124,125,126,127,129,130,131,132,134,135,136,137,138],[0,16,18,19,20,21,23,24,25,26,28,29,30,31,33,34,35,36,38,39,40,41,43,44,45,46,48,49,50,51,53,54,55,56,58,59,60,61,63,64,65,66,68,69,70,71,73,74,75,76,77,79,80,81,82,84,85,86,87,89,90,91,92,94,95,96,97,99,100,101,102,104,105,106,107,109,110,111,112,114,115,116,117,119,120,121,122,124,125,126,127,129,130,131,132,134,135,136,137,138],[0,16,18,19,20,21,23,24,25,26,28,29,30,31,33,34,35,36,38,39,40,41,43,44,45,46,48,49,50,51,53,54,55,56,58,59,60,61,63,64,65,66,68,69,70,71,73,74,75,76,77,79,80,81,82,84,85,86,87,89,90,91,92,94,95,96,97,99,100,101,102,104,105,106,107,109,110,111,112,114,115,116,117,119,120,121,122,124,125,126,127,129,130,131,132,134,135,136,137,138],[0,32,35,37,40,42,45,47,50,52,55,57,60,62,65,67,70,72,75,77,80,82,85,87,90,92,95,97,100,102,105,107,110,112,115,117,120,122,125,127,130,132,135,137,140,142,145,147,150,152,155,157,160,162,165,167,170,172,175,177,180,182,185,187,190,192,195,197,200,202,205,207,210,212,215,217,220,222,225,227,230,232,235,237,240,242,245,247,250,252,255,257,260,262,265,267,270,272,275,277],[0,32,35,37,40,42,45,47,50,52,55,57,60,62,65,67,70,72,75,77,80,82,85,87,90,92,95,97,100,102,105,107,110,112,115,117,120,122,125,127,130,132,135,137,140,142,145,147,150,152,155,157,160,162,165,167,170,172,175,177,180,182,185,187,190,192,195,197,200,202,205,207,210,212,215,217,220,222,225,227,230,232,235,237,240,242,245,247,250,252,255,257,260,262,265,267,270,272,275,277]]},
{"id":5,"expParams":[35,19,31,31],"traits":[{"code":23,"dataId":0,"value":1},{"code":22,"dataId":0,"value":0.95},{"code":22,"dataId":1,"value":0.05},{"code":22,"dataId":2,"value":0.04},{"code":41,"dataId":1,"value":0},{"code":51,"dataId":13,"value":0},{"code":52,"dataId":1,"value":0},{"code":41,"dataId":2,"value":1}],"learnings":[{"level":1,"note":"Poder heredado","skillId":16},{"level":1,"note":"","skillId":1},{"level":1,"note":"","skillId":2},{"level":1,"note":"","skillId":10},{"level":1,"note":"","skillId":22}],"name":"SemiDios","note":"","params":[[1,450,500,550,600,650,700,750,800,850,900,950,1000,1050,1100,1150,1200,1250,1300,1350,1400,1450,1500,1550,1600,1650,1700,1750,1800,1850,1900,1950,2000,2050,2100,2150,2200,2250,2300,2350,2400,2450,2500,2550,2600,2650,2700,2750,2800,2850,2900,2950,3000,3050,3100,3150,3200,3250,3300,3350,3400,3450,3500,3550,3600,3650,3700,3750,3800,3850,3900,3950,4000,4050,4100,4150,4200,4250,4300,4350,4400,4450,4500,4550,4600,4650,4700,4750,4800,4850,4900,4950,5000,5050,5100,5150,5200,5250,5300,5350],[0,90,100,110,120,130,140,150,160,170,180,190,200,210,220,230,240,250,260,270,280,290,300,310,320,330,340,350,360,370,380,390,400,410,420,430,440,450,460,470,480,490,500,510,520,530,540,550,560,570,580,590,600,610,620,630,640,650,660,670,680,690,700,710,720,730,740,750,760,770,780,790,800,810,820,830,840,850,860,870,880,890,900,910,920,930,940,950,960,970,980,990,1000,1010,1020,1030,1040,1050,1060,1070],[1,16,18,19,20,21,23,24,25,26,28,29,30,31,33,34,35,36,38,39,40,41,43,44,45,46,48,49,50,51,53,54,55,56,58,59,60,61,63,64,65,66,68,69,70,71,73,74,75,76,77,79,80,81,82,84,85,86,87,89,90,91,92,94,95,96,97,99,100,101,102,104,105,106,107,109,110,111,112,114,115,116,117,119,120,121,122,124,125,126,127,129,130,131,132,134,135,136,137,138],[0,16,18,19,20,21,23,24,25,26,28,29,30,31,33,34,35,36,38,39,40,41,43,44,45,46,48,49,50,51,53,54,55,56,58,59,60,61,63,64,65,66,68,69,70,71,73,74,75,76,77,79,80,81,82,84,85,86,87,89,90,91,92,94,95,96,97,99,100,101,102,104,105,106,107,109,110,111,112,114,115,116,117,119,120,121,122,124,125,126,127,129,130,131,132,134,135,136,137,138],[0,16,18,19,20,21,23,24,25,26,28,29,30,31,33,34,35,36,38,39,40,41,43,44,45,46,48,49,50,51,53,54,55,56,58,59,60,61,63,64,65,66,68,69,70,71,73,74,75,76,77,79,80,81,82,84,85,86,87,89,90,91,92,94,95,96,97,99,100,101,102,104,105,106,107,109,110,111,112,114,115,116,117,119,120,121,122,124,125,126,127,129,130,131,132,134,135,136,137,138],[0,16,18,19,20,21,23,24,25,26,28,29,30,31,33,34,35,36,38,39,40,41,43,44,45,46,48,49,50,51,53,54,55,56,58,59,60,61,63,64,65,66,68,69,70,71,73,74,75,76,77,79,80,81,82,84,85,86,87,89,90,91,92,94,95,96,97,99,100,101,102,104,105,106,107,109,110,111,112,114,115,116,117,119,120,121,122,124,125,126,127,129,130,131,132,134,135,136,137,138],[0,32,35,37,40,42,45,47,50,52,55,57,60,62,65,67,70,72,75,77,80,82,85,87,90,92,95,97,100,102,105,107,110,112,115,117,120,122,125,127,130,132,135,137,140,142,145,147,150,152,155,157,160,162,165,167,170,172,175,177,180,182,185,187,190,192,195,197,200,202,205,207,210,212,215,217,220,222,225,227,230,232,235,237,240,242,245,247,250,252,255,257,260,262,265,267,270,272,275,277],[0,32,35,37,40,42,45,47,50,52,55,57,60,62,65,67,70,72,75,77,80,82,85,87,90,92,95,97,100,102,105,107,110,112,115,117,120,122,125,127,130,132,135,137,140,142,145,147,150,152,155,157,160,162,165,167,170,172,175,177,180,182,185,187,190,192,195,197,200,202,205,207,210,212,215,217,220,222,225,227,230,232,235,237,240,242,245,247,250,252,255,257,260,262,265,267,270,272,275,277]]},
{"id":6,"expParams":[35,19,31,31],"traits":[{"code":23,"dataId":0,"value":1},{"code":22,"dataId":0,"value":0.95},{"code":22,"dataId":1,"value":0.05},{"code":22,"dataId":2,"value":0.04},{"code":41,"dataId":1,"value":0},{"code":51,"dataId":14,"value":0},{"code":52,"dataId":1,"value":0},{"code":52,"dataId":2,"value":0},{"code":41,"dataId":2,"value":1}],"learnings":[{"level":1,"note":"","skillId":8},{"level":1,"note":"","skillId":15},{"level":1,"note":"","skillId":14},{"level":1,"note":"","skillId":9},{"level":1,"note":"","skillId":22},{"level":1,"note":"","skillId":23},{"level":1,"note":"","skillId":13},{"level":1,"note":"","skillId":11}],"name":"Princesa","note":"","params":[[1,450,500,550,600,650,700,750,800,850,900,950,1000,1050,1100,1150,1200,1250,1300,1350,1400,1450,1500,1550,1600,1650,1700,1750,1800,1850,1900,1950,2000,2050,2100,2150,2200,2250,2300,2350,2400,2450,2500,2550,2600,2650,2700,2750,2800,2850,2900,2950,3000,3050,3100,3150,3200,3250,3300,3350,3400,3450,3500,3550,3600,3650,3700,3750,3800,3850,3900,3950,4000,4050,4100,4150,4200,4250,4300,4350,4400,4450,4500,4550,4600,4650,4700,4750,4800,4850,4900,4950,5000,5050,5100,5150,5200,5250,5300,5350],[0,90,110,129,149,168,188,207,227,246,266,285,305,324,344,363,383,402,422,441,461,480,500,519,539,558,578,597,617,636,656,675,695,714,734,753,773,792,812,831,851,870,890,909,929,948,968,987,1007,1026,1045,1065,1084,1104,1123,1143,1162,1182,1201,1221,1240,1260,1279,1299,1318,1338,1357,1377,1396,1416,1435,1455,1474,1494,1513,1533,1552,1572,1591,1611,1630,1650,1669,1689,1708,1728,1747,1767,1786,1806,1825,1845,1864,1884,1903,1923,1942,1962,1981,2000],[1,16,18,19,20,21,23,24,25,26,28,29,30,31,33,34,35,36,38,39,40,41,43,44,45,46,48,49,50,51,53,54,55,56,58,59,60,61,63,64,65,66,68,69,70,71,73,74,75,76,77,79,80,81,82,84,85,86,87,89,90,91,92,94,95,96,97,99,100,101,102,104,105,106,107,109,110,111,112,114,115,116,117,119,120,121,122,124,125,126,127,129,130,131,132,134,135,136,137,138],[0,16,18,20,22,24,26,28,30,32,33,35,37,39,41,43,45,47,48,50,52,54,56,58,60,62,63,65,67,69,71,73,75,77,78,80,82,84,86,88,90,92,93,95,97,99,101,103,105,107,108,110,112,114,116,118,120,122,124,125,127,129,131,133,135,137,139,140,142,144,146,148,150,152,154,155,157,159,161,163,165,167,169,170,172,174,176,178,180,182,184,185,187,189,191,193,195,197,199,200],[1,16,19,21,24,26,29,31,33,36,38,40,43,45,47,50,52,54,56,59,61,63,65,67,70,72,74,76,78,80,82,85,87,89,91,93,95,97,99,101,103,105,107,109,111,113,115,117,119,120,122,124,126,128,130,132,133,135,137,139,141,142,144,146,147,149,151,153,154,156,158,159,161,162,164,166,167,169,170,172,173,175,176,178,179,181,182,184,185,187,188,190,191,192,194,195,197,198,199,200],[1,16,19,21,24,26,29,31,33,36,38,40,43,45,47,50,52,54,56,59,61,63,65,67,70,72,74,76,78,80,82,85,87,89,91,93,95,97,99,101,103,105,107,109,111,113,115,117,119,120,122,124,126,128,130,132,133,135,137,139,141,142,144,146,147,149,151,153,154,156,158,159,161,162,164,166,167,169,170,172,173,175,176,178,179,181,182,184,185,187,188,190,191,192,194,195,197,198,199,200],[0,32,35,37,40,42,45,47,50,52,55,57,60,62,65,67,70,72,75,77,80,82,85,87,90,92,95,97,100,102,105,107,110,112,115,117,120,122,125,127,130,132,135,137,140,142,145,147,150,152,155,157,160,162,165,167,170,172,175,177,180,182,185,187,190,192,195,197,200,202,205,207,210,212,215,217,220,222,225,227,230,232,235,237,240,242,245,247,250,252,255,257,260,262,265,267,270,272,275,277],[0,32,35,37,40,42,45,47,50,52,55,57,60,62,65,67,70,72,75,77,80,82,85,87,90,92,95,97,100,102,105,107,110,112,115,117,120,122,125,127,130,132,135,137,140,142,145,147,150,152,155,157,160,162,165,167,170,172,175,177,180,182,185,187,190,192,195,197,200,202,205,207,210,212,215,217,220,222,225,227,230,232,235,237,240,242,245,247,250,252,255,257,260,262,265,267,270,272,275,277]]}
]