[
null,
{"id":1,"actions":[{"conditionParam1":0,"conditionParam2":0,"conditionType":0,"rating":5,"skillId":1}],"battlerHue":0,"battlerName":"Bat","dropItems":[{"kind":1,"dataId":1,"denominator":1},{"kind":1,"dataId":2,"denominator":1},{"dataId":1,"denominator":1,"kind":0}],"exp":100,"traits":[{"code":22,"dataId":0,"value":0.95},{"code":22,"dataId":1,"value":0.05},{"code":31,"dataId":1,"value":0}],"gold":50,"name":"Murciélago","note":"","params":[200,0,30,30,30,30,30,30]},
{"id":2,"actions":[{"conditionParam1":0,"conditionParam2":0,"conditionType":0,"rating":5,"skillId":1}],"battlerHue":0,"battlerName":"Slime","dropItems":[{"dataId":1,"denominator":1,"kind":0},{"dataId":1,"denominator":1,"kind":0},{"dataId":1,"denominator":1,"kind":0}],"exp":100,"traits":[{"code":22,"dataId":0,"value":0.95},{"code":22,"dataId":1,"value":0.05},{"code":31,"dataId":1,"value":0}],"gold":50,"name":"Limo","note":"","params":[250,0,30,30,30,30,30,30]},
{"id":3,"actions":[{"conditionParam1":0,"conditionParam2":0,"conditionType":0,"rating":5,"skillId":1}],"battlerHue":0,"battlerName":"Orc","dropItems":[{"kind":1,"dataId":1,"denominator":1},{"dataId":1,"denominator":1,"kind":0},{"dataId":1,"denominator":1,"kind":0}],"exp":200,"traits":[{"code":22,"dataId":0,"value":0.95},{"code":22,"dataId":1,"value":0.05},{"code":31,"dataId":1,"value":0}],"gold":200,"name":"Orco","note":"","params":[300,0,30,30,30,30,30,30]},
{"id":4,"actions":[{"conditionParam1":0,"conditionParam2":0,"conditionType":0,"rating":5,"skillId":1}],"battlerHue":0,"battlerName":"Minotaur","dropItems":[{"dataId":1,"denominator":1,"kind":0},{"dataId":1,"denominator":1,"kind":0},{"dataId":1,"denominator":1,"kind":0}],"exp":150,"traits":[{"code":22,"dataId":0,"value":0.95},{"code":22,"dataId":1,"value":0.05},{"code":31,"dataId":1,"value":0}],"gold":200,"name":"Minotauro","note":"","params":[500,0,30,30,30,30,30,30]},
{"id":5,"actions":[{"conditionParam1":0,"conditionParam2":0,"conditionType":0,"rating":5,"skillId":11},{"conditionParam1":0,"conditionParam2":0.5,"conditionType":2,"rating":5,"skillId":12}],"battlerHue":0,"battlerName":"Willowisp","dropItems":[{"kind":1,"dataId":1,"denominator":1},{"dataId":1,"denominator":1,"kind":0},{"dataId":1,"denominator":1,"kind":0}],"exp":10,"traits":[{"code":22,"dataId":0,"value":0.95},{"code":22,"dataId":1,"value":0.05},{"code":31,"dataId":7,"value":0},{"code":41,"dataId":1,"value":1}],"gold":20,"name":"Espiritu de viento","note":"","params":[200,500,50,50,50,50,10,10]},
{"id":6,"actions":[{"conditionParam1":0.5,"conditionParam2":1,"conditionType":2,"rating":5,"skillId":1},{"conditionParam1":0,"conditionParam2":0.5,"conditionType":2,"rating":7,"skillId":13},{"conditionParam1":0,"conditionParam2":0,"conditionType":0,"rating":5,"skillId":11}],"battlerHue":127,"battlerName":"God","dropItems":[{"kind":1,"dataId":1,"denominator":1},{"kind":1,"dataId":2,"denominator":1},{"dataId":1,"denominator":1,"kind":0}],"exp":1000,"traits":[{"code":22,"dataId":0,"value":0.95},{"code":22,"dataId":1,"value":0.05},{"code":31,"dataId":1,"value":0},{"code":41,"dataId":1,"value":1}],"gold":300,"name":"Tifón","note":"","params":[1500,1500,40,45,45,45,15,15]},
{"id":7,"actions":[{"conditionParam1":0,"conditionParam2":0,"conditionType":0,"rating":5,"skillId":1},{"conditionParam1":0,"conditionParam2":0.35,"conditionType":2,"rating":5,"skillId":8},{"conditionParam1":0,"conditionParam2":0.15,"conditionType":2,"rating":5,"skillId":5}],"battlerHue":0,"battlerName":"Irongiant","dropItems":[{"kind":1,"dataId":1,"denominator":1},{"dataId":1,"denominator":1,"kind":0},{"dataId":1,"denominator":1,"kind":0}],"exp":20,"traits":[{"code":22,"dataId":0,"value":0.95},{"code":22,"dataId":1,"value":0.05},{"code":31,"dataId":1,"value":0}],"gold":15,"name":"Golem de Hierro","note":"","params":[300,0,30,50,30,50,10,10]},
{"id":8,"actions":[{"conditionParam1":0,"conditionParam2":0,"conditionType":0,"rating":5,"skillId":1}],"battlerHue":0,"battlerName":"Spider","dropItems":[{"dataId":1,"denominator":1,"kind":0},{"dataId":1,"denominator":1,"kind":0},{"dataId":1,"denominator":1,"kind":0}],"exp":0,"traits":[{"code":22,"dataId":0,"value":0.95},{"code":22,"dataId":1,"value":0.05},{"code":31,"dataId":1,"value":0}],"gold":0,"name":"Spider","note":"","params":[100,0,10,10,10,10,10,10]},
{"id":9,"actions":[{"conditionParam1":0,"conditionParam2":0,"conditionType":0,"rating":5,"skillId":1}],"battlerHue":0,"battlerName":"Snake","dropItems":[{"dataId":1,"denominator":1,"kind":0},{"dataId":1,"denominator":1,"kind":0},{"dataId":1,"denominator":1,"kind":0}],"exp":0,"traits":[{"code":22,"dataId":0,"value":0.95},{"code":22,"dataId":1,"value":0.05},{"code":31,"dataId":1,"value":0}],"gold":0,"name":"Snake","note":"","params":[100,0,10,10,10,10,10,10]},
{"id":10,"actions":[{"conditionParam1":0,"conditionParam2":0,"conditionType":0,"rating":5,"skillId":1}],"battlerHue":0,"battlerName":"Plant","dropItems":[{"dataId":1,"denominator":1,"kind":0},{"dataId":1,"denominator":1,"kind":0},{"dataId":1,"denominator":1,"kind":0}],"exp":0,"traits":[{"code":22,"dataId":0,"value":0.95},{"code":22,"dataId":1,"value":0.05},{"code":31,"dataId":1,"value":0}],"gold":0,"name":"Planta Carnivora","note":"","params":[100,0,10,10,10,10,10,10]},
{"id":11,"actions":[{"conditionParam1":0,"conditionParam2":0,"conditionType":0,"rating":5,"skillId":1},{"conditionParam1":0,"conditionParam2":0,"conditionType":0,"rating":5,"skillId":2}],"battlerHue":0,"battlerName":"SF_Seiryu","dropItems":[{"kind":1,"dataId":1,"denominator":1},{"dataId":1,"denominator":1,"kind":0},{"dataId":1,"denominator":1,"kind":0}],"exp":5000,"traits":[{"code":22,"dataId":0,"value":0.95},{"code":22,"dataId":1,"value":0.05},{"code":31,"dataId":1,"value":0}],"gold":5000,"name":"Seiryu","note":"","params":[1000,1000,50,60,100,70,10,10]},
{"id":12,"actions":[{"conditionParam1":0,"conditionParam2":0,"conditionType":0,"rating":5,"skillId":1},{"conditionParam1":0,"conditionParam2":0.5,"conditionType":2,"rating":9,"skillId":24}],"battlerHue":0,"battlerName":"Actor2_1","dropItems":[{"kind":1,"dataId":1,"denominator":1},{"kind":1,"dataId":2,"denominator":1},{"kind":1,"dataId":4,"denominator":1}],"exp":5000,"traits":[{"code":22,"dataId":0,"value":0.95},{"code":22,"dataId":1,"value":0.05},{"code":31,"dataId":1,"value":0},{"code":41,"dataId":1,"value":1}],"gold":2500,"name":"Poseidón","note":"","params":[2000,1500,60,60,60,60,20,10]},
{"id":13,"actions":[{"conditionParam1":0.5,"conditionParam2":1,"conditionType":2,"rating":5,"skillId":1},{"conditionParam1":0,"conditionParam2":0,"conditionType":0,"rating":5,"skillId":9},{"conditionParam1":0,"conditionParam2":0.5,"conditionType":2,"rating":9,"skillId":26}],"battlerHue":0,"battlerName":"SF_DarkLord2000","dropItems":[{"dataId":1,"denominator":1,"kind":0},{"dataId":1,"denominator":1,"kind":0},{"dataId":1,"denominator":1,"kind":0}],"exp":10000,"traits":[{"code":22,"dataId":0,"value":0.95},{"code":22,"dataId":1,"value":0.05},{"code":31,"dataId":1,"value":0},{"code":41,"dataId":1,"value":1}],"gold":1000,"name":"Hades","note":"","params":[2200,2000,80,80,80,82,15,10]},
{"id":14,"actions":[{"conditionParam1":0,"conditionParam2":0,"conditionType":0,"rating":5,"skillId":1},{"conditionParam1":0,"conditionParam2":0,"conditionType":0,"rating":4,"skillId":9}],"battlerHue":0,"battlerName":"Cerberus","dropItems":[{"kind":1,"dataId":1,"denominator":1},{"dataId":1,"denominator":1,"kind":0},{"dataId":1,"denominator":1,"kind":0}],"exp":500,"traits":[{"code":22,"dataId":0,"value":0.95},{"code":22,"dataId":1,"value":0.05},{"code":31,"dataId":1,"value":0}],"gold":1000,"name":"Cerberus","note":"","params":[400,400,30,30,30,30,15,10]},
{"id":15,"actions":[{"conditionParam1":0,"conditionParam2":0,"conditionType":0,"rating":5,"skillId":1},{"conditionParam1":0,"conditionParam2":0,"conditionType":0,"rating":5,"skillId":4}],"battlerHue":0,"battlerName":"Imp","dropItems":[{"kind":1,"dataId":1,"denominator":1},{"dataId":1,"denominator":1,"kind":0},{"dataId":1,"denominator":1,"kind":0}],"exp":500,"traits":[{"code":22,"dataId":0,"value":0.95},{"code":22,"dataId":1,"value":0.05},{"code":31,"dataId":1,"value":0}],"gold":15,"name":"Imp","note":"","params":[200,200,15,15,20,20,15,10]},
{"id":16,"actions":[{"conditionParam1":0,"conditionParam2":0,"conditionType":0,"rating":5,"skillId":1},{"conditionParam1":0,"conditionParam2":0,"conditionType":0,"rating":5,"skillId":3}],"battlerHue":0,"battlerName":"Ogre","dropItems":[{"kind":1,"dataId":1,"denominator":1},{"dataId":1,"denominator":1,"kind":0},{"dataId":1,"denominator":1,"kind":0}],"exp":1000,"traits":[{"code":22,"dataId":0,"value":0.95},{"code":22,"dataId":1,"value":0.05},{"code":31,"dataId":1,"value":0}],"gold":200,"name":"Ogro","note":"","params":[200,200,25,30,30,30,10,10]},
{"id":17,"actions":[{"conditionParam1":0,"conditionParam2":0,"conditionType":0,"rating":4,"skillId":9},{"conditionParam1":0,"conditionParam2":0,"conditionType":0,"rating":5,"skillId":10},{"conditionParam1":0,"conditionParam2":0,"conditionType":0,"rating":4,"skillId":11}],"battlerHue":0,"battlerName":"SF_Preacher","dropItems":[{"kind":1,"dataId":1,"denominator":1},{"kind":1,"dataId":2,"denominator":1},{"dataId":1,"denominator":1,"kind":0}],"exp":1000,"traits":[{"code":22,"dataId":0,"value":0.95},{"code":22,"dataId":1,"value":0.05},{"code":41,"dataId":1,"value":1}],"gold":1500,"name":"Mayordomo","note":"","params":[2000,2000,35,80,80,80,10,10]},
{"id":18,"actions":[{"conditionParam1":0,"conditionParam2":0,"conditionType":0,"rating":5,"skillId":1},{"conditionParam1":0,"conditionParam2":0,"conditionType":0,"rating":5,"skillId":5}],"battlerHue":0,"battlerName":"SF_Butcher","dropItems":[{"kind":1,"dataId":1,"denominator":1},{"dataId":1,"denominator":1,"kind":0},{"dataId":1,"denominator":1,"kind":0}],"exp":1000,"traits":[{"code":22,"dataId":0,"value":0.95},{"code":22,"dataId":1,"value":0.05},{"code":31,"dataId":1,"value":0}],"gold":1500,"name":"Carnicero","note":"","params":[1500,1500,90,90,30,30,10,10]},
{"id":19,"actions":[{"conditionParam1":0,"conditionParam2":0,"conditionType":0,"rating":5,"skillId":3},{"conditionParam1":0,"conditionParam2":0,"conditionType":0,"rating":5,"skillId":5}],"battlerHue":0,"battlerName":"Actor1_5","dropItems":[{"kind":1,"dataId":1,"denominator":1},{"dataId":1,"denominator":1,"kind":0},{"dataId":1,"denominator":1,"kind":0}],"exp":2000,"traits":[{"code":22,"dataId":0,"value":0.95},{"code":22,"dataId":1,"value":0.05},{"code":31,"dataId":1,"value":0}],"gold":2000,"name":"Teseo","note":"","params":[1000,1000,90,90,90,90,20,10]},
{"id":20,"actions":[{"conditionParam1":0,"conditionParam2":0,"conditionType":0,"rating":5,"skillId":10},{"conditionParam1":0,"conditionParam2":0,"conditionType":0,"rating":5,"skillId":9},{"conditionParam1":0,"conditionParam2":0,"conditionType":0,"rating":6,"skillId":8}],"battlerHue":0,"battlerName":"Mage","dropItems":[{"kind":1,"dataId":1,"denominator":1},{"kind":1,"dataId":3,"denominator":1},{"dataId":1,"denominator":1,"kind":0}],"exp":2000,"traits":[{"code":22,"dataId":0,"value":0.95},{"code":22,"dataId":1,"value":0.05},{"code":31,"dataId":1,"value":0},{"code":41,"dataId":1,"value":1}],"gold":2000,"name":"Odiseo","note":"","params":[1000,1000,40,40,80,100,10,10]},
{"id":21,"actions":[{"conditionParam1":0,"conditionParam2":0,"conditionType":0,"rating":5,"skillId":3},{"conditionParam1":0,"conditionParam2":0.3,"conditionType":2,"rating":9,"skillId":5}],"battlerHue":0,"battlerName":"SF_Abomination","dropItems":[{"kind":1,"dataId":1,"denominator":1},{"kind":1,"dataId":1,"denominator":1},{"dataId":1,"denominator":1,"kind":0}],"exp":2000,"traits":[{"code":22,"dataId":0,"value":0.95},{"code":22,"dataId":1,"value":0.05},{"code":31,"dataId":1,"value":0}],"gold":2000,"name":"Jason","note":"","params":[1000,1000,120,120,10,80,10,10]},
{"id":22,"actions":[{"conditionParam1":0,"conditionParam2":0,"conditionType":0,"rating":4,"skillId":3},{"conditionParam1":0,"conditionParam2":0.4,"conditionType":2,"rating":9,"skillId":10}],"battlerHue":0,"battlerName":"Actor3_1","dropItems":[{"dataId":1,"denominator":1,"kind":0},{"dataId":1,"denominator":1,"kind":0},{"dataId":1,"denominator":1,"kind":0}],"exp":2000,"traits":[{"code":22,"dataId":0,"value":0.95},{"code":22,"dataId":1,"value":0.05},{"code":31,"dataId":1,"value":0},{"code":41,"dataId":1,"value":1}],"gold":2000,"name":"Hercules","note":"","params":[1500,1500,130,80,80,80,10,10]},
{"id":23,"actions":[{"conditionParam1":0.55,"conditionParam2":1,"conditionType":2,"rating":3,"skillId":1},{"conditionParam1":0,"conditionParam2":0,"conditionType":0,"rating":5,"skillId":10},{"conditionParam1":0,"conditionParam2":0.4,"conditionType":2,"rating":9,"skillId":25}],"battlerHue":0,"battlerName":"SF_Archangel","dropItems":[{"dataId":1,"denominator":1,"kind":0},{"dataId":1,"denominator":1,"kind":0},{"dataId":1,"denominator":1,"kind":0}],"exp":10000,"traits":[{"code":22,"dataId":0,"value":0.95},{"code":22,"dataId":1,"value":0.05},{"code":31,"dataId":1,"value":0},{"code":41,"dataId":1,"value":1}],"gold":5000,"name":"Zeus","note":"","params":[4000,4000,130,130,130,130,15,12]},
{"id":24,"actions":[{"conditionParam1":0,"conditionParam2":0,"conditionType":0,"rating":5,"skillId":1}],"battlerHue":0,"battlerName":"Death","dropItems":[{"kind":1,"dataId":1,"denominator":1},{"kind":1,"dataId":2,"denominator":1},{"kind":1,"dataId":4,"denominator":1}],"exp":4000,"traits":[{"code":22,"dataId":0,"value":0.95},{"code":22,"dataId":1,"value":0.05},{"code":31,"dataId":1,"value":0}],"gold":4000,"name":"Liche","note":"","params":[2000,2000,40,40,40,40,15,10]},
{"id":25,"actions":[{"conditionParam1":0,"conditionParam2":0,"conditionType":0,"rating":5,"skillId":1}],"battlerHue":0,"battlerName":"","dropItems":[{"dataId":1,"denominator":1,"kind":0},{"dataId":1,"denominator":1,"kind":0},{"dataId":1,"denominator":1,"kind":0}],"exp":0,"traits":[{"code":22,"dataId":0,"value":0.95},{"code":22,"dataId":1,"value":0.05},{"code":31,"dataId":1,"value":0}],"gold":0,"name":"","note":"","params":[100,0,10,10,10,10,10,10]},
{"id":26,"actions":[{"conditionParam1":0,"conditionParam2":0,"conditionType":0,"rating":5,"skillId":1}],"battlerHue":0,"battlerName":"","dropItems":[{"dataId":1,"denominator":1,"kind":0},{"dataId":1,"denominator":1,"kind":0},{"dataId":1,"denominator":1,"kind":0}],"exp":0,"traits":[{"code":22,"dataId":0,"value":0.95},{"code":22,"dataId":1,"value":0.05},{"code":31,"dataId":1,"value":0}],"gold":0,"name":"","note":"","params":[100,0,10,10,10,10,10,10]}
]